%YAML 1.1
%TAG !u! tag:unity3d.com,2011:
--- !u!1045 &1
EditorBuildSettings:
  m_ObjectHideFlags: 0
  serializedVersion: 2
  m_Scenes:
  - enabled: 1
    path: Assets/Scenes/Prototypes/RoomPrototype.unity
    guid: add603230aedff04d85a2dd6444f9351
  - enabled: 1
    path: Assets/Scenes/MainMenu.unity
    guid: 21044c2255e3f524dbd1016290a00b06
  m_configObjects: {}
